…
We have chosen `threshold = 0.95` for the PCA extraction, as this is a typical value
in the literature for similar problems. We could also have set it to `tune()` to include it in our grid search, but decided against it to keep computational requirements to a manageable level. 

We can get a sense of what `rf_recipe` achieves by applying it to the `train` set:


```r
rf_recipe %>% prep(train) %>% bake(train)
```

```
## # A tibble: 19,622 x 30
##    classe  PC01     PC02  PC03  PC04  PC05  PC06  PC07  PC08  PC09   PC10
##    <fct>  <dbl>    <dbl> <dbl> <dbl> <dbl> <dbl> <dbl> <dbl> <dbl>  <dbl>
##  1 A       3.90 -0.0580  -2.91 0.673 -2.38 0.948  2.39 0.219 0.913 -0.817
##  2 A       3.90  0.0341  -2.92 0.781 -2.52 1.00   2.30 0.232 0.944 -0.835
##  3 A       3.94 -0.106   -2.90 0.671 -2.38 0.960  2.36 0.213 0.938 -0.806
##  4 A       3.90 -0.00867 -2.90 0.724 -2.46 0.980  2.29 0.229 0.971 -0.804
##  5 A       3.92 -0.0618  -2.87 0.735 -2.51 0.988  2.30 0.266 0.926 -0.852
##  6 A       3.94 -0.149   -2.90 0.673 -2.38 0.951  2.37 0.237 0.939 -0.808
##  7 A       3.88 -0.0338  -2.89 0.695 -2.42 0.989  2.35 0.237 0.948 -0.838
##  8 A       3.90 -0.105   -2.91 0.706 -2.42 0.986  2.37 0.230 0.945 -0.818
##  9 A       3.98 -0.130   -2.87 0.648 -2.34 0.937  2.36 0.215 0.926 -0.794
## 10 A       3.97 -0.107   -2.90 0.763 -2.48 0.984  2.32 0.243 0.904 -0.808
## # ... with 19,612 more rows, and 19 more variables: PC11 <dbl>, PC12 <dbl>,
## #   PC13 <dbl>, PC14 <dbl>, PC15 <dbl>, PC16 <dbl>, PC17 <dbl>, PC18 <dbl>,
## #   PC19 <dbl>, PC20 <dbl>, PC21 <dbl>, PC22 <dbl>, PC23 <dbl>, PC24 <dbl>,
## #   PC25 <dbl>, PC26 <dbl>, PC27 <dbl>, PC28 <dbl>, PC29 <dbl>
```
…
